{
  "pokemons": [
    {
      "name": "bulbasaur",
      "id": 1,
      "damage": 90,
      "isCaught": true,
      "dateOfCapture": "Sun, 06 Jun 2021 18:27:29 GMT"
    },
    {
      "name": "ivysaur",
      "id": 2,
      "damage": 105,
      "isCaught": true,
      "dateOfCapture": "Sun, 06 Jun 2021 18:27:30 GMT"
    },
    {
      "name": "venusaur",
      "id": 3,
      "damage": 105,
      "isCaught": true,
      "dateOfCapture": "Sun, 06 Jun 2021 18:28:18 GMT"
    },
    {
      "name": "charmander",
      "id": 4,
      "damage": 85,
      "isCaught": true,
      "dateOfCapture": "Sun, 06 Jun 2021 18:29:22 GMT"
    },
    {
      "name": "charmeleon",
      "id": 5,
      "damage": 135,
      "isCaught": true,
      "dateOfCapture": "Mon, 07 Jun 2021 09:04:32 GMT"
    },
    {
      "name": "charizard",
      "id": 6,
      "damage": 60,
      "isCaught": true,
      "dateOfCapture": "Sun, 06 Jun 2021 18:29:36 GMT"
    },
    {
      "name": "squirtle",
      "id": 7,
      "damage": 20,
      "isCaught": true,
      "dateOfCapture": "Sun, 06 Jun 2021 18:29:32 GMT"
    },
    {
      "name": "wartortle",
      "id": 8,
      "damage": 90,
      "isCaught": true,
      "dateOfCapture": "Sun, 06 Jun 2021 18:29:29 GMT"
    },
    {
      "name": "blastoise",
      "id": 9,
      "damage": 70,
      "isCaught": true,
      "dateOfCapture": "Mon, 07 Jun 2021 09:04:31 GMT"
    },
    {
      "name": "caterpie",
      "id": 10,
      "damage": 10,
      "isCaught": true,
      "dateOfCapture": "Mon, 07 Jun 2021 09:04:27 GMT"
    },
    {
      "name": "metapod",
      "id": 11,
      "isCaught": true,
      "dateOfCapture": "Mon, 07 Jun 2021 09:07:40 GMT",
      "damage": null
    },
    {
      "name": "butterfree",
      "id": 12,
      "isCaught": false,
      "dateOfCapture": null
    },
    {
      "name": "weedle",
      "id": 13,
      "isCaught": false,
      "dateOfCapture": null
    },
    {
      "name": "kakuna",
      "id": 14,
      "isCaught": false,
      "dateOfCapture": null
    },
    {
      "name": "beedrill",
      "id": 15,
      "isCaught": true,
      "dateOfCapture": "Mon, 07 Jun 2021 09:07:19 GMT",
      "damage": null
    },
    {
      "name": "pidgey",
      "id": 16,
      "isCaught": false,
      "dateOfCapture": null
    },
    {
      "name": "pidgeotto",
      "id": 17,
      "isCaught": false,
      "dateOfCapture": null
    },
    {
      "name": "pidgeot",
      "id": 18,
      "isCaught": false,
      "dateOfCapture": null
    },
    {
      "name": "rattata",
      "id": 19,
      "isCaught": false,
      "dateOfCapture": null
    },
    {
      "name": "raticate",
      "id": 20,
      "isCaught": false,
      "dateOfCapture": null
    },
    {
      "name": "spearow",
      "id": 21,
      "isCaught": false,
      "dateOfCapture": null
    },
    {
      "name": "fearow",
      "id": 22,
      "isCaught": false,
      "dateOfCapture": null
    },
    {
      "name": "ekans",
      "id": 23,
      "isCaught": false,
      "dateOfCapture": null
    },
    {
      "name": "arbok",
      "id": 24,
      "isCaught": false,
      "dateOfCapture": null
    },
    {
      "name": "pikachu",
      "id": 25,
      "isCaught": false,
      "dateOfCapture": null
    },
    {
      "name": "raichu",
      "id": 26,
      "isCaught": false,
      "dateOfCapture": null
    },
    {
      "name": "sandshrew",
      "id": 27,
      "isCaught": false,
      "dateOfCapture": null
    },
    {
      "name": "sandslash",
      "id": 28,
      "isCaught": false,
      "dateOfCapture": null
    },
    {
      "name": "nidoran-f",
      "id": 29,
      "isCaught": false,
      "dateOfCapture": null
    },
    {
      "name": "nidorina",
      "id": 30,
      "isCaught": false,
      "dateOfCapture": null
    },
    {
      "name": "nidoqueen",
      "id": 31,
      "isCaught": false,
      "dateOfCapture": null
    },
    {
      "name": "nidoran-m",
      "id": 32,
      "isCaught": false,
      "dateOfCapture": null
    },
    {
      "name": "nidorino",
      "id": 33,
      "isCaught": false,
      "dateOfCapture": null
    },
    {
      "name": "nidoking",
      "id": 34,
      "isCaught": false,
      "dateOfCapture": null
    },
    {
      "name": "clefairy",
      "id": 35,
      "isCaught": false,
      "dateOfCapture": null
    },
    {
      "name": "clefable",
      "id": 36,
      "isCaught": false,
      "dateOfCapture": null
    },
    {
      "name": "vulpix",
      "id": 37,
      "isCaught": false,
      "dateOfCapture": null
    },
    {
      "name": "ninetales",
      "id": 38,
      "isCaught": false,
      "dateOfCapture": null
    },
    {
      "name": "jigglypuff",
      "id": 39,
      "isCaught": false,
      "dateOfCapture": null
    },
    {
      "name": "wigglytuff",
      "id": 40,
      "isCaught": false,
      "dateOfCapture": null
    },
    {
      "name": "zubat",
      "id": 41,
      "isCaught": false,
      "dateOfCapture": null
    },
    {
      "name": "golbat",
      "id": 42,
      "isCaught": false,
      "dateOfCapture": null
    },
    {
      "name": "oddish",
      "id": 43,
      "isCaught": false,
      "dateOfCapture": null
    },
    {
      "name": "gloom",
      "id": 44,
      "isCaught": false,
      "dateOfCapture": null
    },
    {
      "name": "vileplume",
      "id": 45,
      "isCaught": false,
      "dateOfCapture": null
    },
    {
      "name": "paras",
      "id": 46,
      "isCaught": false,
      "dateOfCapture": null
    },
    {
      "name": "parasect",
      "id": 47,
      "isCaught": false,
      "dateOfCapture": null
    },
    {
      "name": "venonat",
      "id": 48,
      "isCaught": false,
      "dateOfCapture": null
    },
    {
      "name": "venomoth",
      "id": 49,
      "isCaught": false,
      "dateOfCapture": null
    },
    {
      "name": "diglett",
      "id": 50,
      "isCaught": false,
      "dateOfCapture": null
    },
    {
      "name": "dugtrio",
      "id": 51,
      "isCaught": false,
      "dateOfCapture": null
    },
    {
      "name": "meowth",
      "id": 52,
      "isCaught": false,
      "dateOfCapture": null
    },
    {
      "name": "persian",
      "id": 53,
      "isCaught": false,
      "dateOfCapture": null
    },
    {
      "name": "psyduck",
      "id": 54,
      "isCaught": false,
      "dateOfCapture": null
    },
    {
      "name": "golduck",
      "id": 55,
      "isCaught": false,
      "dateOfCapture": null
    },
    {
      "name": "mankey",
      "id": 56,
      "isCaught": false,
      "dateOfCapture": null
    },
    {
      "name": "primeape",
      "id": 57,
      "isCaught": false,
      "dateOfCapture": null
    },
    {
      "name": "growlithe",
      "id": 58,
      "isCaught": false,
      "dateOfCapture": null
    },
    {
      "name": "arcanine",
      "id": 59,
      "isCaught": false,
      "dateOfCapture": null
    },
    {
      "name": "poliwag",
      "id": 60,
      "isCaught": false,
      "dateOfCapture": null
    },
    {
      "name": "poliwhirl",
      "id": 61,
      "isCaught": false,
      "dateOfCapture": null
    },
    {
      "name": "poliwrath",
      "id": 62,
      "isCaught": false,
      "dateOfCapture": null
    },
    {
      "name": "abra",
      "id": 63,
      "isCaught": false,
      "dateOfCapture": null
    },
    {
      "name": "kadabra",
      "id": 64,
      "isCaught": false,
      "dateOfCapture": null
    },
    {
      "name": "alakazam",
      "id": 65,
      "isCaught": false,
      "dateOfCapture": null
    },
    {
      "name": "machop",
      "id": 66,
      "isCaught": false,
      "dateOfCapture": null
    },
    {
      "name": "machoke",
      "id": 67,
      "isCaught": false,
      "dateOfCapture": null
    },
    {
      "name": "machamp",
      "id": 68,
      "isCaught": false,
      "dateOfCapture": null
    },
    {
      "name": "bellsprout",
      "id": 69,
      "isCaught": false,
      "dateOfCapture": null
    },
    {
      "name": "weepinbell",
      "id": 70,
      "isCaught": false,
      "dateOfCapture": null
    },
    {
      "name": "victreebel",
      "id": 71,
      "isCaught": false,
      "dateOfCapture": null
    },
    {
      "name": "tentacool",
      "id": 72,
      "isCaught": false,
      "dateOfCapture": null
    },
    {
      "name": "tentacruel",
      "id": 73,
      "isCaught": false,
      "dateOfCapture": null
    },
    {
      "name": "geodude",
      "id": 74,
      "isCaught": false,
      "dateOfCapture": null
    },
    {
      "name": "graveler",
      "id": 75,
      "isCaught": false,
      "dateOfCapture": null
    },
    {
      "name": "golem",
      "id": 76,
      "isCaught": false,
      "dateOfCapture": null
    },
    {
      "name": "ponyta",
      "id": 77,
      "isCaught": false,
      "dateOfCapture": null
    },
    {
      "name": "rapidash",
      "id": 78,
      "isCaught": false,
      "dateOfCapture": null
    },
    {
      "name": "slowpoke",
      "id": 79,
      "isCaught": false,
      "dateOfCapture": null
    },
    {
      "name": "slowbro",
      "id": 80,
      "isCaught": false,
      "dateOfCapture": null
    },
    {
      "name": "magnemite",
      "id": 81,
      "isCaught": false,
      "dateOfCapture": null
    },
    {
      "name": "magneton",
      "id": 82,
      "isCaught": false,
      "dateOfCapture": null
    },
    {
      "name": "farfetchd",
      "id": 83,
      "isCaught": false,
      "dateOfCapture": null
    },
    {
      "name": "doduo",
      "id": 84,
      "isCaught": false,
      "dateOfCapture": null
    },
    {
      "name": "dodrio",
      "id": 85,
      "isCaught": false,
      "dateOfCapture": null
    },
    {
      "name": "seel",
      "id": 86,
      "isCaught": false,
      "dateOfCapture": null
    },
    {
      "name": "dewgong",
      "id": 87,
      "isCaught": false,
      "dateOfCapture": null
    },
    {
      "name": "grimer",
      "id": 88,
      "isCaught": false,
      "dateOfCapture": null
    },
    {
      "name": "muk",
      "id": 89,
      "isCaught": false,
      "dateOfCapture": null
    },
    {
      "name": "shellder",
      "id": 90,
      "isCaught": false,
      "dateOfCapture": null
    },
    {
      "name": "cloyster",
      "id": 91,
      "isCaught": false,
      "dateOfCapture": null
    },
    {
      "name": "gastly",
      "id": 92,
      "isCaught": false,
      "dateOfCapture": null
    },
    {
      "name": "haunter",
      "id": 93,
      "isCaught": false,
      "dateOfCapture": null
    },
    {
      "name": "gengar",
      "id": 94,
      "isCaught": false,
      "dateOfCapture": null
    },
    {
      "name": "onix",
      "id": 95,
      "isCaught": false,
      "dateOfCapture": null
    },
    {
      "name": "drowzee",
      "id": 96,
      "isCaught": false,
      "dateOfCapture": null
    },
    {
      "name": "hypno",
      "id": 97,
      "isCaught": false,
      "dateOfCapture": null
    },
    {
      "name": "krabby",
      "id": 98,
      "isCaught": false,
      "dateOfCapture": null
    },
    {
      "name": "kingler",
      "id": 99,
      "isCaught": false,
      "dateOfCapture": null
    },
    {
      "name": "voltorb",
      "id": 100,
      "isCaught": false,
      "dateOfCapture": null
    },
    {
      "name": "electrode",
      "id": 101,
      "isCaught": false,
      "dateOfCapture": null
    },
    {
      "name": "exeggcute",
      "id": 102,
      "isCaught": false,
      "dateOfCapture": null
    },
    {
      "name": "exeggutor",
      "id": 103,
      "isCaught": false,
      "dateOfCapture": null
    },
    {
      "name": "cubone",
      "id": 104,
      "isCaught": false,
      "dateOfCapture": null
    },
    {
      "name": "marowak",
      "id": 105,
      "isCaught": false,
      "dateOfCapture": null
    },
    {
      "name": "hitmonlee",
      "id": 106,
      "isCaught": false,
      "dateOfCapture": null
    },
    {
      "name": "hitmonchan",
      "id": 107,
      "isCaught": false,
      "dateOfCapture": null
    },
    {
      "name": "lickitung",
      "id": 108,
      "isCaught": false,
      "dateOfCapture": null
    },
    {
      "name": "koffing",
      "id": 109,
      "isCaught": false,
      "dateOfCapture": null
    },
    {
      "name": "weezing",
      "id": 110,
      "isCaught": false,
      "dateOfCapture": null
    },
    {
      "name": "rhyhorn",
      "id": 111,
      "isCaught": false,
      "dateOfCapture": null
    },
    {
      "name": "rhydon",
      "id": 112,
      "isCaught": false,
      "dateOfCapture": null
    },
    {
      "name": "chansey",
      "id": 113,
      "isCaught": false,
      "dateOfCapture": null
    },
    {
      "name": "tangela",
      "id": 114,
      "isCaught": false,
      "dateOfCapture": null
    },
    {
      "name": "kangaskhan",
      "id": 115,
      "isCaught": false,
      "dateOfCapture": null
    },
    {
      "name": "horsea",
      "id": 116,
      "isCaught": false,
      "dateOfCapture": null
    },
    {
      "name": "seadra",
      "id": 117,
      "isCaught": false,
      "dateOfCapture": null
    },
    {
      "name": "goldeen",
      "id": 118,
      "isCaught": false,
      "dateOfCapture": null
    },
    {
      "name": "seaking",
      "id": 119,
      "isCaught": false,
      "dateOfCapture": null
    },
    {
      "name": "staryu",
      "id": 120,
      "isCaught": false,
      "dateOfCapture": null
    },
    {
      "name": "starmie",
      "id": 121,
      "isCaught": false,
      "dateOfCapture": null
    },
    {
      "name": "mr-mime",
      "id": 122,
      "isCaught": false,
      "dateOfCapture": null
    },
    {
      "name": "scyther",
      "id": 123,
      "isCaught": false,
      "dateOfCapture": null
    },
    {
      "name": "jynx",
      "id": 124,
      "isCaught": false,
      "dateOfCapture": null
    },
    {
      "name": "electabuzz",
      "id": 125,
      "isCaught": false,
      "dateOfCapture": null
    },
    {
      "name": "magmar",
      "id": 126,
      "isCaught": false,
      "dateOfCapture": null
    },
    {
      "name": "pinsir",
      "id": 127,
      "isCaught": false,
      "dateOfCapture": null
    },
    {
      "name": "tauros",
      "id": 128,
      "isCaught": false,
      "dateOfCapture": null
    },
    {
      "name": "magikarp",
      "id": 129,
      "isCaught": false,
      "dateOfCapture": null
    },
    {
      "name": "gyarados",
      "id": 130,
      "isCaught": false,
      "dateOfCapture": null
    },
    {
      "name": "lapras",
      "id": 131,
      "isCaught": false,
      "dateOfCapture": null
    },
    {
      "name": "ditto",
      "id": 132,
      "isCaught": false,
      "dateOfCapture": null
    },
    {
      "name": "eevee",
      "id": 133,
      "isCaught": false,
      "dateOfCapture": null
    },
    {
      "name": "vaporeon",
      "id": 134,
      "isCaught": false,
      "dateOfCapture": null
    },
    {
      "name": "jolteon",
      "id": 135,
      "isCaught": false,
      "dateOfCapture": null
    },
    {
      "name": "flareon",
      "id": 136,
      "isCaught": false,
      "dateOfCapture": null
    },
    {
      "name": "porygon",
      "id": 137,
      "isCaught": false,
      "dateOfCapture": null
    },
    {
      "name": "omanyte",
      "id": 138,
      "isCaught": false,
      "dateOfCapture": null
    },
    {
      "name": "omastar",
      "id": 139,
      "isCaught": false,
      "dateOfCapture": null
    },
    {
      "name": "kabuto",
      "id": 140,
      "isCaught": false,
      "dateOfCapture": null
    },
    {
      "name": "kabutops",
      "id": 141,
      "isCaught": false,
      "dateOfCapture": null
    },
    {
      "name": "aerodactyl",
      "id": 142,
      "isCaught": false,
      "dateOfCapture": null
    },
    {
      "name": "snorlax",
      "id": 143,
      "isCaught": false,
      "dateOfCapture": null
    },
    {
      "name": "articuno",
      "id": 144,
      "isCaught": false,
      "dateOfCapture": null
    },
    {
      "name": "zapdos",
      "id": 145,
      "isCaught": false,
      "dateOfCapture": null
    },
    {
      "name": "moltres",
      "id": 146,
      "isCaught": false,
      "dateOfCapture": null
    },
    {
      "name": "dratini",
      "id": 147,
      "isCaught": false,
      "dateOfCapture": null
    },
    {
      "name": "dragonair",
      "id": 148,
      "isCaught": false,
      "dateOfCapture": null
    },
    {
      "name": "dragonite",
      "id": 149,
      "isCaught": false,
      "dateOfCapture": null
    },
    {
      "name": "mewtwo",
      "id": 150,
      "isCaught": false,
      "dateOfCapture": null
    },
    {
      "name": "mew",
      "id": 151,
      "isCaught": false,
      "dateOfCapture": null
    },
    {
      "name": "chikorita",
      "id": 152,
      "isCaught": false,
      "dateOfCapture": null
    },
    {
      "name": "bayleef",
      "id": 153,
      "isCaught": false,
      "dateOfCapture": null
    },
    {
      "name": "meganium",
      "id": 154,
      "isCaught": false,
      "dateOfCapture": null
    },
    {
      "name": "cyndaquil",
      "id": 155,
      "isCaught": false,
      "dateOfCapture": null
    },
    {
      "name": "quilava",
      "id": 156,
      "isCaught": false,
      "dateOfCapture": null
    },
    {
      "name": "typhlosion",
      "id": 157,
      "isCaught": false,
      "dateOfCapture": null
    },
    {
      "name": "totodile",
      "id": 158,
      "isCaught": false,
      "dateOfCapture": null
    },
    {
      "name": "croconaw",
      "id": 159,
      "isCaught": false,
      "dateOfCapture": null
    },
    {
      "name": "feraligatr",
      "id": 160,
      "isCaught": false,
      "dateOfCapture": null
    },
    {
      "name": "sentret",
      "id": 161,
      "isCaught": false,
      "dateOfCapture": null
    },
    {
      "name": "furret",
      "id": 162,
      "isCaught": false,
      "dateOfCapture": null
    },
    {
      "name": "hoothoot",
      "id": 163,
      "isCaught": false,
      "dateOfCapture": null
    },
    {
      "name": "noctowl",
      "id": 164,
      "isCaught": false,
      "dateOfCapture": null
    },
    {
      "name": "ledyba",
      "id": 165,
      "isCaught": false,
      "dateOfCapture": null
    },
    {
      "name": "ledian",
      "id": 166,
      "isCaught": false,
      "dateOfCapture": null
    },
    {
      "name": "spinarak",
      "id": 167,
      "isCaught": false,
      "dateOfCapture": null
    },
    {
      "name": "ariados",
      "id": 168,
      "isCaught": false,
      "dateOfCapture": null
    },
    {
      "name": "crobat",
      "id": 169,
      "isCaught": false,
      "dateOfCapture": null
    },
    {
      "name": "chinchou",
      "id": 170,
      "isCaught": false,
      "dateOfCapture": null
    },
    {
      "name": "lanturn",
      "id": 171,
      "isCaught": false,
      "dateOfCapture": null
    },
    {
      "name": "pichu",
      "id": 172,
      "isCaught": false,
      "dateOfCapture": null
    },
    {
      "name": "cleffa",
      "id": 173,
      "isCaught": false,
      "dateOfCapture": null
    },
    {
      "name": "igglybuff",
      "id": 174,
      "isCaught": false,
      "dateOfCapture": null
    },
    {
      "name": "togepi",
      "id": 175,
      "isCaught": false,
      "dateOfCapture": null
    },
    {
      "name": "togetic",
      "id": 176,
      "isCaught": false,
      "dateOfCapture": null
    },
    {
      "name": "natu",
      "id": 177,
      "isCaught": false,
      "dateOfCapture": null
    },
    {
      "name": "xatu",
      "id": 178,
      "isCaught": false,
      "dateOfCapture": null
    },
    {
      "name": "mareep",
      "id": 179,
      "isCaught": false,
      "dateOfCapture": null
    },
    {
      "name": "flaaffy",
      "id": 180,
      "isCaught": false,
      "dateOfCapture": null
    },
    {
      "name": "ampharos",
      "id": 181,
      "isCaught": false,
      "dateOfCapture": null
    },
    {
      "name": "bellossom",
      "id": 182,
      "isCaught": false,
      "dateOfCapture": null
    },
    {
      "name": "marill",
      "id": 183,
      "isCaught": false,
      "dateOfCapture": null
    },
    {
      "name": "azumarill",
      "id": 184,
      "isCaught": false,
      "dateOfCapture": null
    },
    {
      "name": "sudowoodo",
      "id": 185,
      "isCaught": false,
      "dateOfCapture": null
    },
    {
      "name": "politoed",
      "id": 186,
      "isCaught": false,
      "dateOfCapture": null
    },
    {
      "name": "hoppip",
      "id": 187,
      "isCaught": false,
      "dateOfCapture": null
    },
    {
      "name": "skiploom",
      "id": 188,
      "isCaught": false,
      "dateOfCapture": null
    },
    {
      "name": "jumpluff",
      "id": 189,
      "isCaught": false,
      "dateOfCapture": null
    },
    {
      "name": "aipom",
      "id": 190,
      "isCaught": false,
      "dateOfCapture": null
    },
    {
      "name": "sunkern",
      "id": 191,
      "isCaught": false,
      "dateOfCapture": null
    },
    {
      "name": "sunflora",
      "id": 192,
      "isCaught": false,
      "dateOfCapture": null
    },
    {
      "name": "yanma",
      "id": 193,
      "isCaught": false,
      "dateOfCapture": null
    },
    {
      "name": "wooper",
      "id": 194,
      "isCaught": false,
      "dateOfCapture": null
    },
    {
      "name": "quagsire",
      "id": 195,
      "isCaught": false,
      "dateOfCapture": null
    },
    {
      "name": "espeon",
      "id": 196,
      "isCaught": false,
      "dateOfCapture": null
    },
    {
      "name": "umbreon",
      "id": 197,
      "isCaught": false,
      "dateOfCapture": null
    },
    {
      "name": "murkrow",
      "id": 198,
      "isCaught": false,
      "dateOfCapture": null
    },
    {
      "name": "slowking",
      "id": 199,
      "isCaught": false,
      "dateOfCapture": null
    },
    {
      "name": "misdreavus",
      "id": 200,
      "isCaught": false,
      "dateOfCapture": null
    }
  ]
}